xaringan_presentation.utf8
…
.panel[.panel-name[result]

```
## # A tibble: 120 x 6
##    n_sample cov_size n_indi cut_size condition_number n_rep
##       <dbl>    <dbl>  <dbl>    <dbl>            <int> <int>
##  1      100      0        3        3                1     1
##  2      100      0        3        5                2     1
##  3      100      0        3        7                3     1
##  4      100      0        6        3                4     1
##  5      100      0        6        5                5     1
##  6      100      0        6        7                6     1
##  7      100      0.5      3        3                7     1
##  8      100      0.5      3        5                8     1
##  9      100      0.5      3        7                9     1
## 10      100      0.5      6        3               10     1
## # ... with 110 more rows
```
…
.panel[.panel-name[code]

```r
power_res <- getPower(sim_result)
bias_res <- getAccuracy(sim_result)
```
]

.panel[.panel-name[result]
.scroll-box-18[

```
## # A tibble: 24 x 5
## # Groups:   n_sample, cov_size, n_indi [8]
##    n_sample cov_size n_indi cut_size mean_rate
##       <dbl>    <dbl>  <dbl>    <dbl>     <dbl>
##  1      100      0        3        3      0.05
##  2      100      0        3        5      0.02
##  3      100      0        3        7      0.07
##  4      100      0        6        3      0.03
##  5      100      0        6        5      0.04
##  6      100      0        6        7      0.02
##  7      100      0.5      3        3      0.95
##  8      100      0.5      3        5      1   
##  9      100      0.5      3        7      0.99
## 10      100      0.5      6        3      1   
## # ... with 14 more rows
```

```
## # A tibble: 72 x 7
## # Groups:   n_sample, cov_size, n_indi, cut_size [24]
##    n_sample cov_size n_indi cut_size type                Bias   RMSE
##       <dbl>    <dbl>  <dbl>    <dbl> <chr>              <dbl>  <dbl>
##  1      100        0      3        3 factor_loading  0.0507   0.267 
##  2      100        0      3        3 latent_cov      0.000923 0.0288
##  3      100        0      3        3 latent_var     -0.789    0.791 
##  4      100        0      3        5 factor_loading  0.0115   0.182 
##  5      100        0      3        5 latent_cov      0.00761  0.0775
##  6      100        0      3        5 latent_var     -0.352    0.385 
##  7      100        0      3        7 factor_loading  0.0259   0.168 
##  8      100        0      3        7 latent_cov     -0.000765 0.161 
##  9      100        0      3        7 latent_var      0.217    0.363 
## 10      100        0      6        3 factor_loading  0.0381   0.198 
## # ... with 62 more rows
```
…
