R로 package 만들어서 Simulation 하기
…
  return(con_list)
}

condition_list <- 
  makeCondition(
    n_sample = c(100, 500), cov_size = c(0, 0.5), n_indi = c(3, 6), 
    cut_size = c(3,5,7), n_rep = 5, full = F)

condition_list

## # A tibble: 24 x 5
##    n_sample cov_size n_indi cut_size condition_number
##       <dbl>    <dbl>  <dbl>    <dbl>            <int>
##  1      100      0        3        3                1
##  2      100      0        3        5                2
##  3      100      0        3        7                3
##  4      100      0        6        3                4
##  5      100      0        6        5                5
##  6      100      0        6        7                6
##  7      100      0.5      3        3                7
##  8      100      0.5      3        5                8
##  9      100      0.5      3        7                9
## 10      100      0.5      6        3               10
## # ... with 14 more rows
…
